An Exploration of Medical Data – M437 Final
…
rsample
to split data into training and test sets

ggplot2
to create nice-looking and informative graphs

Data Description

This data was found

readr::read_csv(here::here("lung_disease_data.csv"))

# A tibble: 5,200 × 8
     Age Gender `Smoking Status` `Lung Capacity` `Disease Type` `Treatment Type`
   <dbl> <chr>  <chr>                      <dbl> <chr>          <chr>           
 1    71 Female No                          4.49 COPD           Therapy         
 2    34 Female Yes                        NA    Bronchitis     Surgery         
 3    80 Male   Yes                         1.95 COPD           <NA>            
 4    40 Female Yes                        NA    Bronchitis     Medication      
 5    43 Male   Yes                         4.6  COPD           Surgery         
 6    22 Female No                          3.65 Bronchitis     Medication      
 7    41 Male   Yes                         2.98 Asthma         Medication      
 8    72 Male   <NA>                        2.61 Lung Cancer    Surgery         
 9    21 Female No                          4.05 Lung Cancer    Medication      
10    49 Male   Yes                         5.7  Pneumonia      Medication      
# ℹ 5,190 more rows
# ℹ 2 more variables: `Hospital Visits` <dbl>, Recovered <chr>
…
